<?xml version="1.0" encoding="utf-8"?>
<!-- Generator: Adobe Illustrator 21.0.0, SVG Export Plug-In . SVG Version: 6.00 Build 0)  -->
<svg version="1.1" id="Calque_1" xmlns="http://www.w3.org/2000/svg" xmlns:xlink="http://www.w3.org/1999/xlink" x="0px" y="0px"
	 viewBox="0 0 5 10" style="enable-background:new 0 0 5 10;" xml:space="preserve">
<title>caret--right</title>
<desc>Created with Sketch.</desc>
<polygon id="caret" points="0,10 5,5 0,0 "/>
</svg>
