<?xml version="1.0" encoding="utf-8"?>
<!-- Generator: Adobe Illustrator 21.0.0, SVG Export Plug-In . SVG Version: 6.00 Build 0)  -->
<svg version="1.1" id="Calque_1" xmlns="http://www.w3.org/2000/svg" xmlns:xlink="http://www.w3.org/1999/xlink" x="0px" y="0px"
	 viewBox="0 0 16 16" style="enable-background:new 0 0 16 16;" xml:space="preserve">
<title>awake</title>
<desc>Created with Sketch.</desc>
<polygon id="Path-54" points="7.5,0 8.5,0 8.5,3 7.5,3 "/>
<polygon id="Path-54_1_" points="7.5,13 8.5,13 8.5,16 7.5,16 "/>
<polygon id="Path-54_2_" points="16,7.5 16,8.5 13,8.5 13,7.5 "/>
<polygon id="Path-54_3_" points="3,7.5 3,8.5 0,8.5 0,7.5 "/>
<polygon id="Path-54_4_" points="2,2.7 2.7,2 4.8,4.1 4.1,4.8 "/>
<polygon id="Path-54_5_" points="11.2,11.9 11.9,11.2 14,13.3 13.3,14 "/>
<polygon id="Path-54_6_" points="13.3,2 14,2.7 11.9,4.8 11.2,4.1 "/>
<polygon id="Path-54_7_" points="4.1,11.2 4.8,11.9 2.7,14 2,13.3 "/>
<path id="Oval-6" d="M8,10.5c1.4,0,2.5-1.1,2.5-2.5S9.4,5.5,8,5.5S5.5,6.6,5.5,8S6.6,10.5,8,10.5z M8,11.5c-1.9,0-3.5-1.6-3.5-3.5
	S6.1,4.5,8,4.5s3.5,1.6,3.5,3.5S9.9,11.5,8,11.5z"/>
</svg>
