<?xml version="1.0" encoding="utf-8"?>
<!-- Generator: Adobe Illustrator 21.0.0, SVG Export Plug-In . SVG Version: 6.00 Build 0)  -->
<svg version="1.1" id="Calque_1" xmlns="http://www.w3.org/2000/svg" xmlns:xlink="http://www.w3.org/1999/xlink" x="0px" y="0px"
	 viewBox="0 0 12 12" style="enable-background:new 0 0 12 12;" xml:space="preserve">
<title>chevron--up</title>
<desc>Created with Sketch.</desc>
<polygon id="chevron" points="6,3.9 0.7,9.5 0,8.8 6,2.5 12,8.8 11.3,9.5 "/>
</svg>
