<?xml version="1.0" encoding="utf-8"?>
<!-- Generator: Adobe Illustrator 21.0.0, SVG Export Plug-In . SVG Version: 6.00 Build 0)  -->
<svg version="1.1" id="Calque_1" xmlns="http://www.w3.org/2000/svg" xmlns:xlink="http://www.w3.org/1999/xlink" x="0px" y="0px"
	 viewBox="0 0 9.7 11.1" style="enable-background:new 0 0 9.7 11.1;" xml:space="preserve">
<style type="text/css">
	.st0{opacity:0.3;fill:#434547;enable-background:new    ;}
</style>
<g transform="translate(2.000000, 0.000000)">
	<path d="M6.2,1.5h0.5c0.5,0,1,0.4,1,1v4.8H7.2V2.4c0-0.3-0.2-0.5-0.5-0.5H6.2V1.5z M-0.5,1.5v0.5H-1c-0.3,0-0.5,0.2-0.5,0.5v7.8
		c0,0.3,0.2,0.5,0.5,0.5h4.8v0.5H-1c-0.5,0-1-0.4-1-1V2.4c0-0.5,0.4-1,1-1H-0.5z M-0.1,1h1.5c0,0,0.2-1,1.5-1s1.5,1,1.5,1h1.5v2.4
		h-5.8V1z M0.4,1.5v1.5h4.8V1.5H3.9L3.8,1.1c0-0.1-0.1-0.2-0.2-0.3C3.5,0.6,3.2,0.5,2.8,0.5S2.2,0.6,2,0.8C1.9,0.9,1.9,1,1.9,1.1
		L1.8,1.5H0.4z"/>
	<polygon points="6.2,11.1 6.2,9.7 7.7,9.7 7.7,9.2 6.2,9.2 6.2,7.8 5.8,7.8 5.8,9.2 4.3,9.2 4.3,9.7 5.8,9.7 5.8,11.1 	"/>
	<path class="st0" d="M-0.1,5.3h5.8v1h-5.8V5.3z M-0.1,7.3h3.9v1h-3.9V7.3z"/>
</g>
</svg>
