<?xml version="1.0" encoding="utf-8"?>
<!-- Generator: Adobe Illustrator 21.0.0, SVG Export Plug-In . SVG Version: 6.00 Build 0)  -->
<svg version="1.1" id="Calque_1" xmlns="http://www.w3.org/2000/svg" xmlns:xlink="http://www.w3.org/1999/xlink" x="0px" y="0px"
	 viewBox="0 0 15 10.1" style="enable-background:new 0 0 15 10.1;" xml:space="preserve">
<path d="M10.3,0.1C9.7,0.2,8,0.5,8,0.6c0,0,0.5,0.9,1,1.5c1.1,1.6,2.3,2.5,3.4,2.5c0.4,0,1-0.2,1.3-0.4C14.3,3.8,14.8,3,15,2.1V1.7
	l-0.2-0.3c-0.4-0.6-0.9-1-1.7-1.2C12.6,0,11.1,0,10.3,0.1z"/>
<path d="M6.7,0.9C5.3,1.4,3.5,2.2,2.3,2.8L1.7,3.1l0.2,0.1c0.1,0,0.3,0.1,0.4,0.2l0.2,0.2L3,3.4C3.8,3,4.5,3.1,5,3.7
	c0.1,0.1,0.3,0.4,0.4,0.5l0.1,0.2l0.3-0.3c0.4-0.4,0.9-0.5,1.5-0.5c0.7,0,1,0.2,2.1,1.2c0.6,0.6,1,0.9,1.3,1C12,6.5,13.1,6.2,14,5.1
	l0.2-0.3L14,5c-0.8,0.6-1.9,0.7-2.8,0.3c-0.8-0.3-1.6-1-2.2-2C8.7,2.8,8,1.5,7.7,0.9c0-0.1-0.1-0.3-0.1-0.2C7.6,0.7,7.2,0.8,6.7,0.9
	z"/>
<path d="M0.6,4.3C0.2,4.5,0,4.7,0,4.8C0,5,1.2,6.4,2,7.2c1.1,1.1,1.9,1.7,3,2.2c1.6,0.8,2.6,0.9,3.8,0.5c1-0.3,2.4-1.3,3.4-2.2
	c0.4-0.4,0.4-0.4,0.3-0.4c-0.7,0.2-1.8-0.1-2.6-0.6C9.6,6.6,9,6.2,8.6,5.9s-0.8-0.7-1-0.8c-1-0.4-2.2,0.3-2.9,1.7
	c0,0.2-0.1,0.4-0.1,0.4s0-0.3,0-0.7c0-1-0.2-1.7-0.7-1.9C3.6,4.4,3,4.5,2.6,4.7C2.3,4.9,1.8,5.3,1.5,5.8C1.4,5.9,1.3,6,1.4,5.9
	c0.1-0.3,0.2-1,0.2-1.2C1.6,4.1,1.3,4,0.6,4.3z"/>
</svg>
