<?xml version="1.0" encoding="utf-8"?>
<!-- Generator: Adobe Illustrator 21.0.0, SVG Export Plug-In . SVG Version: 6.00 Build 0)  -->
<svg version="1.1" id="Capa_1" xmlns="http://www.w3.org/2000/svg" xmlns:xlink="http://www.w3.org/1999/xlink" x="0px" y="0px"
	 viewBox="0 0 369.5 424" style="enable-background:new 0 0 369.5 424;" xml:space="preserve">
<g>
	<g>
		<path d="M57.1,0C26,0,0.8,25.3,0.8,56.3s25.3,56.3,56.3,56.3s56.3-25.3,56.3-56.3S88.1,0,57.1,0z M57.1,87.9
			c-17.4,0-31.6-14.2-31.6-31.6s14.2-31.6,31.6-31.6s31.6,14.2,31.6,31.6S74.5,87.9,57.1,87.9z"/>
		<path d="M356.3,67.2H147.7c-6.8,0-12.4,5.5-12.4,12.4c0,6.8,5.5,12.4,12.4,12.4h208.7c6.8,0,12.4-5.5,12.4-12.4
			C368.7,72.8,363.2,67.2,356.3,67.2z"/>
		<path d="M147.7,45.3h208.7c6.8,0,12.4-5.5,12.4-12.4s-5.5-12.4-12.4-12.4H147.7c-6.8,0-12.4,5.5-12.4,12.4
			C135.3,39.8,140.8,45.3,147.7,45.3z"/>
		<path d="M57.1,155.7C26,155.7,0.8,181,0.8,212s25.3,56.3,56.3,56.3s56.3-25.3,56.3-56.3S88.1,155.7,57.1,155.7z M57.1,243.6
			c-17.4,0-31.6-14.2-31.6-31.6s14.2-31.6,31.6-31.6s31.6,14.2,31.6,31.6S74.5,243.6,57.1,243.6z"/>
		<path d="M356.3,223H147.7c-6.8,0-12.4,5.5-12.4,12.4s5.5,12.4,12.4,12.4h208.7c6.8,0,12.4-5.5,12.4-12.4S363.2,223,356.3,223z"/>
		<path d="M356.3,176.3H147.7c-6.8,0-12.4,5.5-12.4,12.4s5.5,12.4,12.4,12.4h208.7c6.8,0,12.4-5.5,12.4-12.4
			S363.2,176.3,356.3,176.3z"/>
		<path d="M57.1,311.4c-31,0-56.3,25.3-56.3,56.3S26,424,57.1,424s56.3-25.3,56.3-56.3S88.1,311.4,57.1,311.4z M57.1,399.3
			c-17.4,0-31.6-14.2-31.6-31.6s14.2-31.6,31.6-31.6s31.6,14.2,31.6,31.6S74.5,399.3,57.1,399.3z"/>
		<path d="M356.3,378.7H147.7c-6.8,0-12.4,5.5-12.4,12.4c0,6.8,5.5,12.4,12.4,12.4h208.7c6.8,0,12.4-5.5,12.4-12.4
			C368.7,384.2,363.2,378.7,356.3,378.7z"/>
		<path d="M356.3,332H147.7c-6.8,0-12.4,5.5-12.4,12.4c0,6.8,5.5,12.4,12.4,12.4h208.7c6.8,0,12.4-5.5,12.4-12.4
			C368.7,337.6,363.2,332,356.3,332z"/>
		<circle cx="57.1" cy="56.3" r="11.2"/>
		<circle cx="57.1" cy="212" r="11.2"/>
	</g>
</g>
</svg>
