<?xml version="1.0" encoding="utf-8"?>
<!-- Generator: Adobe Illustrator 23.0.2, SVG Export Plug-In . SVG Version: 6.00 Build 0)  -->
<svg version="1.1" id="Capa_1" xmlns="http://www.w3.org/2000/svg" xmlns:xlink="http://www.w3.org/1999/xlink" x="0px" y="0px"
	 viewBox="0 0 369.5 323" style="enable-background:new 0 0 369.5 323;" xml:space="preserve">
<path d="M184.8,95.8c-36.2,0-65.7,29.5-65.7,65.7s29.5,65.7,65.7,65.7s65.7-29.5,65.7-65.7S221,95.8,184.8,95.8 M184.8,210.8
	c-27.2,0-49.3-22.1-49.3-49.3c0-27.2,22.1-49.3,49.3-49.3c27.2,0,49.3,22.1,49.3,49.3C234,188.7,211.9,210.8,184.8,210.8
	 M367.1,155.7l-35.3-35.6c-39.1-39.4-91.4-61.2-147.1-61.2c-55.7,0-107.9,21.8-147.1,61.2L2.4,155.7c-3.2,3.2-3.2,8.4,0,11.6
	l35.3,35.6c39.1,39.4,91.4,61.2,147.1,61.2c55.7,0,107.9-21.8,147.1-61.2l35.3-35.6C370.3,164.1,370.3,158.9,367.1,155.7
	 M320.1,191.4c-36,36.3-84.1,56.4-135.4,56.4c-51.3,0-99.4-20-135.4-56.4l-29.6-29.8l29.6-29.9c36-36.3,84.1-56.4,135.4-56.4
	c51.3,0,99.4,20,135.4,56.4l29.6,29.9L320.1,191.4z"/>
</svg>
