<?xml version="1.0" encoding="utf-8"?>
<!-- Generator: Adobe Illustrator 21.0.0, SVG Export Plug-In . SVG Version: 6.00 Build 0)  -->
<svg version="1.1" id="Calque_1" xmlns="http://www.w3.org/2000/svg" xmlns:xlink="http://www.w3.org/1999/xlink" x="0px" y="0px"
	 viewBox="0 0 15 16" style="enable-background:new 0 0 15 16;" xml:space="preserve">
<title>power</title>
<desc>Created with Sketch.</desc>
<rect id="Rectangle-12" x="7" width="1" height="8"/>
<path id="Oval-14" d="M10.7,1.7c0.8,0.4,1.5,0.9,2.2,1.6c2.9,3,2.8,7.7-0.2,10.6S5,16.7,2.1,13.7S-0.7,6,2.3,3.1
	c0.6-0.6,1.6-1.2,2.1-1.4l0.4,0.9C4.3,2.9,3.4,3.4,3,3.8C0.4,6.3,0.3,10.4,2.8,13s6.6,2.7,9.2,0.2s2.7-6.6,0.2-9.2
	c-0.5-0.6-1.2-1-1.9-1.3L10.7,1.7z"/>
</svg>
